% beginfig(1);

linecap := butt;
linejoin := mitered;

drawoptions (withcolor (0.066667,0.058824,0.050980));

% letter "K"
fill (25.964800,72.250000)..controls (25.964800,72.871101) and (25.722700,73.464798)..(24.914101,73.761703)
	..controls (24.238300,74.003899) and (23.617201,74.085899)..(22.945299,74.191399)
	..controls (21.976601,74.355499) and (22.164101,75.300797)..(23.027300,75.300797)
	..controls (23.589800,75.300797) and (26.289101,75.082001)..(29.496099,75.082001)
	..controls (31.359400,75.082001) and (34.027302,75.164101)..(35.320301,75.246101)
	..controls (36.128899,75.300797) and (36.210899,74.437500)..(35.644501,74.273399)
	..controls (35.078098,74.113297) and (32.406200,73.464798)..(27.636700,69.097702)
	..controls (22.703100,64.566399) and (16.339800,57.855499)..(16.339800,57.855499)
	..controls (16.339800,57.855499) and (30.628901,40.812500)..(33.136700,38.792999)
	..controls (35.726601,36.687500) and (37.503899,36.527302)..(39.445301,36.367199)
	..controls (39.933601,36.339802) and (40.089802,35.394501)..(39.445301,35.394501)--(28.285200,35.394501)
	..controls (28.285200,35.394501) and (14.453100,52.109402)..(12.187500,53.648399)
	..controls (11.781200,53.890598) and (10.812500,54.214802)..(10.730500,53.082001)
	..controls (10.652300,52.031200) and (10.570300,43.160198)..(10.812500,41.218800)
	..controls (11.054700,39.277302) and (11.863300,36.445301)..(16.476601,36.445301)
	..controls (17.039101,36.445301) and (17.363300,35.367199)..(16.554701,35.394501)
	..controls (13.832000,35.531200) and (11.781200,35.531200)..(8.410160,35.531200)
	..controls (5.500000,35.531200) and (1.429690,35.394501)..(0.863281,35.394501)
	..controls (-0.105469,35.394501) and (-0.105469,36.285198)..(0.781250,36.367199)
	..controls (2.074220,36.445301) and (5.152340,36.609402)..(5.339840,41.542999)
	..controls (5.554690,46.636700) and (5.417970,68.101601)..(5.339840,70.445297)
	..controls (5.312500,72.062500) and (3.937500,74.246101)..(0.378906,74.246101)
	..controls (-0.187500,74.246101) and (-0.105469,75.218803)..(0.539062,75.218803)--(15.746100,75.218803)
	..controls (16.312500,75.218803) and (16.636700,74.273399)..(15.664100,74.191399)
	..controls (14.695300,74.113297) and (11.000000,74.003899)..(10.894500,69.070297)
	..controls (10.757800,64.136703) and (10.757800,56.480499)..(10.757800,56.156200)
	..controls (10.757800,55.750000) and (10.918000,55.347698)..(11.484400,55.750000)
	..controls (13.238300,56.937500) and (18.441401,62.035198)..(22.324200,66.402298)
	..controls (23.859400,68.125000) and (24.914101,69.636703)..(25.640600,71.039101)
	..controls (25.804701,71.335899) and (25.964800,71.765602)..(25.964800,72.250000)
	--cycle;

% letter "I"
fill (45.109402,58.582001)--(45.109402,72.304703)..controls (45.109402,74.003899) and (46.320301,74.488297)..(47.613300,74.570297)
	..controls (48.101601,74.570297) and (48.183601,75.218803)..(47.535198,75.218803)--(39.445301,75.218803)
	..controls (38.878899,75.218803) and (38.796902,74.597702)..(39.363300,74.570297)
	..controls (40.578098,74.437500) and (42.035198,73.843803)..(42.035198,72.304703)--(42.035198,58.582001)
	..controls (42.035198,57.046902) and (41.468800,56.074200)..(39.687500,56.074200)
	..controls (38.988300,56.074200) and (39.148399,55.480499)..(39.687500,55.480499)--(47.613300,55.480499)
	..controls (48.019501,55.480499) and (48.128899,56.074200)..(47.453098,56.074200)
	..controls (45.753899,56.074200) and (45.109402,57.207001)..(45.109402,58.582001)
	--cycle;

% letter "N"
fill (50.312500,75.218803)..controls (49.746101,75.218803) and (49.746101,74.652298)..(50.070301,74.570297)
	..controls (50.691399,74.437500) and (51.984402,74.328102)..(51.984402,72.628899)
	..controls (52.011700,68.613297) and (52.011700,63.355499)..(51.851601,59.066399)
	..controls (51.820301,57.531200) and (51.363300,56.238300)..(50.042999,56.074200)
	..controls (49.558601,56.046902) and (49.558601,55.480499)..(49.878899,55.480499)--(55.703098,55.480499)
	..controls (56.027302,55.480499) and (56.136700,55.992199)..(55.730499,56.074200)
	..controls (54.839802,56.238300) and (53.386700,56.238300)..(53.277302,59.066399)
	..controls (53.144501,61.816399) and (53.062500,72.226601)..(53.062500,72.226601)--(67.671898,55.968800)--(68.882797,55.968800)
	..controls (68.882797,55.968800) and (68.882797,71.175797)..(68.964798,72.332001)
	..controls (69.046898,73.679703) and (69.503899,74.410202)..(70.960899,74.515602)
	..controls (71.687500,74.570297) and (71.554703,75.218803)..(71.066399,75.218803)--(65.136703,75.218803)
	..controls (64.437500,75.218803) and (64.597702,74.570297)..(64.921898,74.570297)
	..controls (65.566399,74.488297) and (67.589798,74.246101)..(67.671898,72.304703)
	..controls (67.750000,69.476601) and (67.886703,60.656200)..(67.886703,60.656200)--(54.894501,75.218803)
	--cycle;
fill (50.312500,75.218803)--cycle;

% letter "G"
fill (91.289101,61.953098)..controls (91.289101,63.597698) and (92.503899,63.757801)..(93.554703,63.839802)
	..controls (93.957001,63.894501) and (94.039101,64.539101)..(93.472702,64.539101)--(85.304703,64.539101)
	..controls (84.738297,64.539101) and (84.738297,63.812500)..(85.304703,63.757801)
	..controls (86.921898,63.652302) and (88.214798,63.355499)..(88.214798,61.789101)--(88.214798,58.851601)
	..controls (88.214798,58.203098) and (87.894501,57.746101)..(87.542999,57.476601)
	..controls (86.113297,56.289101) and (84.308601,56.210899)..(83.253899,56.210899)
	..controls (78.078102,56.210899) and (75.757797,60.683601)..(75.757797,65.132797)
	..controls (75.757797,68.746101) and (77.589798,74.437500)..(83.578102,74.437500)
	..controls (88.945297,74.437500) and (90.886703,70.957001)..(91.531197,69.636703)
	..controls (91.750000,69.230499) and (92.261703,69.312500)..(92.261703,69.636703)--(92.261703,73.925797)
	..controls (92.261703,74.328102) and (91.667999,74.410202)..(91.531197,73.925797)
	..controls (91.421898,73.437500) and (91.101601,73.113297)..(90.695297,73.113297)
	..controls (90.371101,73.113297) and (89.996101,73.359398)..(89.835899,73.464798)
	..controls (88.214798,74.488297) and (86.679703,75.300797)..(83.605499,75.300797)
	..controls (78.644501,75.300797) and (72.523399,72.820297)..(72.523399,65.269501)
	..controls (72.523399,57.664101) and (78.265602,55.320301)..(83.281197,55.320301)
	..controls (88.214798,55.320301) and (90.804703,57.828098)..(91.289101,58.152302)
	--cycle;
fill (91.289101,61.953098)--cycle;

% letter "'"
fill (95.628899,72.144501)..controls (94.929703,72.144501) and (94.121101,72.574203)..(94.121101,73.707001)
	..controls (94.121101,74.921898) and (95.089798,75.300797)..(95.820297,75.300797)
	..controls (96.843803,75.300797) and (97.679703,74.570297)..(97.679703,73.304703)
	..controls (97.679703,71.902298) and (96.628899,70.230499)..(94.769501,70.230499)
	..controls (94.578102,70.230499) and (94.496101,70.363297)..(94.496101,70.472702)
	..controls (94.496101,70.605499) and (94.578102,70.687500)..(94.687500,70.714798)
	..controls (95.953102,70.957001) and (96.441399,71.765602)..(96.464798,72.304703)
	..controls (96.359398,72.226601) and (95.980499,72.144501)..(95.628899,72.144501)
	--cycle;

% letter "S"
fill (110.542999,71.253899)..controls (110.676003,71.253899) and (110.835999,71.335899)..(110.785004,71.523399)
	--(110.273003,75.136703)..controls (110.214996,75.378899) and (110.109001,75.460899)..(109.976997,75.460899)
	..controls (109.894997,75.460899) and (109.785004,75.406197)..(109.707001,75.246101)
	..controls (109.542999,74.921898) and (109.296997,74.652298)..(108.839996,74.652298)
	..controls (108.035004,74.652298) and (107.277000,75.246101)..(105.362999,75.246101)
	..controls (102.855003,75.246101) and (99.539101,74.164101)..(99.539101,70.527298)
	..controls (99.539101,66.886703) and (102.453003,65.699203)..(104.960999,64.785202)
	..controls (107.601997,63.812500) and (109.707001,63.085899)..(109.707001,60.335899)
	..controls (109.707001,57.261700) and (107.546997,56.265598)..(105.500000,56.265598)
	..controls (103.234001,56.265598) and (100.566002,57.343800)..(99.621101,60.929699)
	..controls (99.539101,61.226601) and (99.433601,61.304699)..(99.214798,61.304699)
	..controls (99.027298,61.304699) and (98.867203,61.171902)..(98.867203,60.847698)--(98.867203,56.238300)
	..controls (98.867203,55.968800) and (99.027298,55.832001)..(99.191399,55.832001)
	..controls (99.296898,55.832001) and (99.433601,55.914101)..(99.511703,56.046902)
	..controls (99.703102,56.316399) and (99.917999,56.562500)..(100.430000,56.562500)
	..controls (101.453003,56.562500) and (102.667999,55.320301)..(105.605003,55.320301)
	..controls (108.195000,55.320301) and (112.561996,56.128899)..(112.561996,61.226601)
	..controls (112.561996,63.246101) and (111.726997,65.835899)..(106.820000,67.210899)
	..controls (103.339996,68.179703) and (102.237999,69.636703)..(102.237999,71.417999)
	..controls (102.237999,72.953102) and (103.152000,74.437500)..(105.660004,74.437500)
	..controls (106.902000,74.437500) and (108.921997,74.085899)..(110.273003,71.445297)
	..controls (110.351997,71.281197) and (110.433998,71.253899)..(110.542999,71.253899)
	--cycle;

% letter "C"
fill (55.542999,46.718800)..controls (55.703098,46.718800) and (55.812500,46.800800)..(55.863300,46.960899)
	--(57.160198,51.085899)..controls (57.242199,51.328098) and (57.132801,51.492199)..(56.917999,51.492199)
	..controls (56.835899,51.492199) and (56.730499,51.464802)..(56.648399,51.382801)
	..controls (56.402302,51.140598) and (56.109402,50.898399)..(55.863300,50.898399)
	..controls (55.730499,50.898399) and (55.621101,50.980499)..(55.488300,51.085899)
	..controls (54.328098,52.515598) and (52.468800,52.730499)..(51.578098,52.730499)
	..controls (47.453098,52.730499) and (43.894501,50.035198)..(41.792999,46.718800)
	..controls (40.523399,44.750000) and (39.875000,42.593800)..(39.875000,40.464802)
	..controls (39.875000,37.066399) and (42.222698,35.152302)..(45.296902,35.152302)
	..controls (46.671902,35.152302) and (47.722698,35.312500)..(49.582001,36.097698)
	..controls (49.988300,36.257801) and (50.445301,36.445301)..(50.714802,36.445301)
	..controls (51.171902,36.445301) and (51.199200,35.773399)..(51.253899,35.152302)
	..controls (51.253899,34.910198) and (51.417999,34.828098)..(51.578098,34.828098)
	..controls (51.687500,34.828098) and (51.820301,34.882801)..(51.902302,35.070301)--(53.628899,40.007801)
	..controls (53.765598,40.410198) and (53.601601,40.570301)..(53.441399,40.570301)
	..controls (53.195301,40.570301) and (53.062500,40.464802)..(52.871101,40.140598)
	..controls (52.089802,38.925800) and (51.550800,38.144501)..(48.828098,36.824200)
	..controls (47.695301,36.285198) and (46.375000,35.960899)..(45.324200,35.960899)
	..controls (43.031200,35.960899) and (42.144501,37.714802)..(42.144501,39.925800)
	..controls (42.144501,42.835899) and (43.519501,45.882801)..(45.621101,48.417999)
	..controls (46.968800,50.089802) and (49.019501,51.976601)..(51.417999,51.976601)
	..controls (53.707001,51.976601) and (55.406200,50.277302)..(55.164101,47.125000)
	..controls (55.140598,46.855499) and (55.324200,46.718800)..(55.542999,46.718800)
	--cycle;

% letter "o"
fill (63.300800,48.335899)--(63.839802,47.582001)..controls (61.285198,47.582001) and (57.617199,41.515598)..(57.617199,37.820301)
	..controls (57.617199,36.851601) and (58.046902,36.121101)..(59.074200,36.121101)
	..controls (61.582001,36.121101) and (65.324203,42.324200)..(65.324203,45.585899)
	..controls (65.324203,46.558601) and (65.054703,47.582001)..(63.839802,47.582001)--(63.300800,48.335899)
	..controls (65.890602,48.335899) and (66.375000,46.070301)..(66.375000,43.968800)
	..controls (66.375000,40.625000) and (63.300800,35.285198)..(59.585899,35.285198)
	..controls (57.242199,35.285198) and (56.351601,37.175800)..(56.351601,39.117199)
	..controls (56.351601,43.781200) and (59.667999,48.335899)..(63.300800,48.335899)
	--cycle;

% letter "l"
fill (73.441399,51.625000)..controls (73.441399,51.546902) and (73.414101,51.382801)..(73.332001,51.222698)
	..controls (71.148399,46.476601) and (68.992203,41.757801)..(66.890602,37.011700)
	..controls (66.781197,36.769501) and (66.566399,36.285198)..(66.566399,35.960899)
	..controls (66.566399,35.558601) and (66.863297,35.207001)..(67.292999,35.207001)
	..controls (67.507797,35.207001) and (67.804703,35.285198)..(67.964798,35.367199)
	..controls (69.152298,35.851601) and (70.394501,37.148399)..(71.121101,38.253899)
	..controls (71.285202,38.496101) and (70.988297,38.710899)..(70.796898,38.550800)
	..controls (70.503899,38.281200) and (69.664101,37.148399)..(68.777298,36.660198)
	..controls (68.613297,36.582001) and (68.453102,36.582001)..(68.562500,36.906200)--(75.300797,51.867199)
	..controls (75.410202,52.136700) and (75.464798,52.300800)..(75.464798,52.460899)
	..controls (75.464798,52.652302) and (75.328102,52.730499)..(75.140602,52.730499)
	..controls (74.816399,52.730499) and (74.437500,52.652302)..(73.953102,52.597698)
	..controls (73.546898,52.570301) and (72.847702,52.515598)..(72.226601,52.460899)
	..controls (72.066399,52.460899) and (71.984398,52.300800)..(71.984398,52.191399)
	..controls (71.984398,52.031200) and (72.121101,51.949200)..(72.281197,51.949200)
	..controls (72.605499,51.949200) and (72.929703,51.949200)..(73.277298,51.867199)
	..controls (73.414101,51.816399) and (73.441399,51.734402)..(73.441399,51.625000)
	--cycle;

% letter "l"
fill (79.453102,51.625000)..controls (79.453102,51.546902) and (79.425797,51.382801)..(79.343803,51.222698)
	..controls (77.160202,46.476601) and (75.003899,41.757801)..(72.902298,37.011700)
	..controls (72.792999,36.769501) and (72.578102,36.285198)..(72.578102,35.960899)
	..controls (72.578102,35.558601) and (72.875000,35.207001)..(73.308601,35.207001)
	..controls (73.523399,35.207001) and (73.816399,35.285198)..(73.980499,35.367199)
	..controls (75.167999,35.851601) and (76.406197,37.148399)..(77.132797,38.253899)
	..controls (77.296898,38.496101) and (77.000000,38.710899)..(76.812500,38.550800)
	..controls (76.515602,38.281200) and (75.675797,37.148399)..(74.789101,36.660198)
	..controls (74.628899,36.582001) and (74.464798,36.582001)..(74.574203,36.906200)--(81.316399,51.867199)
	..controls (81.421898,52.136700) and (81.476601,52.300800)..(81.476601,52.460899)
	..controls (81.476601,52.652302) and (81.339798,52.730499)..(81.152298,52.730499)
	..controls (80.828102,52.730499) and (80.449203,52.652302)..(79.964798,52.597698)
	..controls (79.562500,52.570301) and (78.859398,52.515598)..(78.242203,52.460899)
	..controls (78.078102,52.460899) and (77.996101,52.300800)..(77.996101,52.191399)
	..controls (77.996101,52.031200) and (78.128899,51.949200)..(78.292999,51.949200)
	..controls (78.617203,51.949200) and (78.941399,51.949200)..(79.292999,51.867199)
	..controls (79.425797,51.816399) and (79.453102,51.734402)..(79.453102,51.625000)
	--cycle;

% letter "e"
fill (87.328102,38.144501)..controls (86.195297,36.660198) and (84.414101,35.285198)..(82.203102,35.285198)
	..controls (80.503899,35.285198) and (79.480499,36.500000)..(79.480499,38.062500)
	..controls (79.480499,42.890598) and (84.820297,47.988300)..(88.378899,47.988300)
	..controls (89.589798,47.988300) and (90.480499,47.527302)..(90.480499,46.234402)
	..controls (90.480499,44.347698) and (88.835899,43.320301)..(85.871101,42.433601)
	..controls (85.035202,42.187500) and (83.199203,41.785198)..(82.312500,41.597698)--(82.714798,42.484402)
	..controls (83.335899,42.511700) and (84.574203,42.808601)..(85.707001,43.160198)
	..controls (87.378899,43.699200) and (88.917999,44.589802)..(88.917999,46.070301)
	..controls (88.917999,46.855499) and (88.539101,47.175800)..(87.785202,47.175800)
	..controls (86.839798,47.175800) and (85.921898,46.476601)..(85.359398,45.910198)
	..controls (84.414101,44.992199) and (83.496101,43.886700)..(82.714798,42.484402)--(82.312500,41.597698)
	..controls (81.906197,40.949200) and (81.394501,39.656200)..(81.394501,38.632801)
	..controls (81.394501,37.253899) and (82.070297,36.445301)..(83.335899,36.445301)
	..controls (84.792999,36.445301) and (86.167999,37.578098)..(86.921898,38.468800)
	..controls (87.164101,38.710899) and (87.542999,38.386700)..(87.328102,38.144501)
	--cycle;

% letter "g"
fill (102.371002,46.855499)..controls (102.695000,46.855499) and (102.991997,47.015598)..(102.991997,47.582001)
	..controls (102.991997,48.066399) and (102.530998,48.230499)..(102.101997,48.230499)
	..controls (101.616997,48.230499) and (100.996002,48.093800)..(100.348000,47.664101)
	..controls (100.188004,47.527302) and (99.781197,47.339802)..(99.539101,47.500000)--(98.867203,46.367199)
	..controls (98.867203,45.585899) and (98.570297,44.535198)..(97.894501,43.402302)
	..controls (96.628899,41.355499) and (95.628899,40.949200)..(94.769501,40.949200)
	..controls (94.039101,40.949200) and (93.714798,41.542999)..(93.714798,42.406200)
	..controls (93.714798,43.160198) and (94.039101,44.132801)..(94.605499,45.019501)
	..controls (95.468803,46.394501) and (96.683601,47.527302)..(97.761703,47.527302)
	..controls (98.488297,47.527302) and (98.867203,47.175800)..(98.867203,46.367199)--(99.539101,47.500000)
	..controls (99.027298,47.851601) and (98.570297,48.093800)..(97.355499,48.093800)
	..controls (96.144501,48.093800) and (94.363297,47.367199)..(93.230499,45.828098)
	..controls (92.421898,44.695301) and (92.261703,43.886700)..(92.261703,43.078098)
	..controls (92.261703,42.269501) and (92.585899,41.675800)..(92.828102,41.355499)
	..controls (92.878899,41.273399) and (92.906197,41.218800)..(92.906197,41.136700)
	..controls (92.906197,40.949200) and (92.664101,40.812500)..(92.261703,40.707001)
	..controls (91.531197,40.464802) and (90.320297,39.761700)..(90.320297,38.523399)
	..controls (90.320297,37.714802) and (90.964798,36.933601)..(91.695297,36.445301)--(92.261703,35.878899)
	..controls (92.988297,35.558601) and (94.093803,34.910198)..(94.445297,34.585899)
	..controls (96.062500,33.453098) and (96.386703,32.808601)..(96.386703,32.242199)
	..controls (96.386703,30.703100) and (94.093803,30.351601)..(92.960899,30.351601)
	..controls (89.968803,30.351601) and (89.078102,32.078098)..(89.078102,32.941399)
	..controls (89.078102,33.750000) and (89.402298,34.261700)..(90.210899,34.828098)
	..controls (90.777298,35.234402) and (91.613297,35.636700)..(92.261703,35.878899)--(91.695297,36.445301)
	..controls (91.695297,36.445301) and (90.210899,36.042999)..(89.023399,35.394501)
	..controls (88.109398,34.882801) and (87.082001,34.101601)..(87.082001,32.968800)
	..controls (87.082001,31.675800) and (88.191399,29.570299)..(92.746101,29.570299)
	..controls (95.414101,29.570299) and (97.085899,30.539101)..(97.734398,31.269501)
	..controls (98.218803,31.835899) and (98.296898,32.484402)..(98.296898,32.886700)
	..controls (98.296898,34.343800) and (96.683601,35.718800)..(94.902298,36.687500)
	..controls (93.769501,37.335899) and (92.097702,38.117199)..(92.097702,39.277302)
	..controls (92.097702,39.574200) and (92.179703,39.898399)..(92.503899,40.085899)
	..controls (92.718803,40.250000) and (93.070297,40.328098)..(93.445297,40.328098)
	..controls (93.957001,40.328098) and (94.605499,40.167999)..(95.066399,40.167999)
	..controls (96.519501,40.167999) and (98.488297,40.652302)..(99.703102,43.242199)
	..controls (100.023003,43.968800) and (100.160004,44.695301)..(100.160004,45.316399)
	..controls (100.160004,46.125000) and (100.023003,46.316399)..(100.023003,46.691399)
	..controls (100.023003,47.015598) and (100.348000,47.203098)..(100.969002,47.203098)
	..controls (101.859001,47.203098) and (101.859001,46.855499)..(102.371002,46.855499)
	--cycle;

% letter "e"
fill (109.140999,38.144501)..controls (108.003998,36.660198) and (106.226997,35.285198)..(103.987999,35.285198)
	..controls (102.289001,35.285198) and (101.292999,36.500000)..(101.292999,38.062500)
	..controls (101.292999,42.890598) and (106.628998,47.988300)..(110.191002,47.988300)
	..controls (111.402000,47.988300) and (112.292999,47.527302)..(112.292999,46.234402)
	..controls (112.292999,44.347698) and (110.621002,43.320301)..(107.683998,42.433601)
	..controls (106.820000,42.187500) and (105.015999,41.785198)..(104.125000,41.597698)--(104.527000,42.484402)
	..controls (105.121002,42.511700) and (106.390999,42.808601)..(107.523003,43.160198)
	..controls (109.164001,43.699200) and (110.703003,44.589802)..(110.703003,46.070301)
	..controls (110.703003,46.855499) and (110.351997,47.175800)..(109.570000,47.175800)
	..controls (108.652000,47.175800) and (107.710999,46.476601)..(107.144997,45.910198)
	..controls (106.226997,44.992199) and (105.280998,43.886700)..(104.527000,42.484402)--(104.125000,41.597698)
	..controls (103.719002,40.949200) and (103.180000,39.656200)..(103.180000,38.632801)
	..controls (103.180000,37.253899) and (103.878998,36.445301)..(105.121002,36.445301)
	..controls (106.578003,36.445301) and (107.953003,37.578098)..(108.734001,38.468800)
	..controls (108.976997,38.710899) and (109.328003,38.386700)..(109.140999,38.144501)
	--cycle;

% letter "L"
fill (1.777340,28.742201)--(8.734380,28.742201)..controls (9.085940,28.742201) and (9.195310,28.179701)..(8.761720,28.179701)
	..controls (8.089840,28.179701) and (6.714840,27.855499)..(6.714840,26.398399)--(6.714840,14.320300)
	..controls (6.714840,12.941400) and (7.386720,12.457000)..(10.382800,12.457000)
	..controls (13.265600,12.457000) and (15.988300,12.808600)..(17.335899,16.636700)
	..controls (17.445299,16.960899) and (17.957001,16.933599)..(17.875000,16.449200)--(16.984400,11.675800)--(2.023440,11.675800)
	..controls (1.507810,11.675800) and (1.617190,12.296900)..(1.941410,12.296900)
	..controls (2.914060,12.296900) and (4.097660,12.753900)..(4.097660,14.507800)--(4.097660,26.074200)
	..controls (4.097660,27.554701) and (3.234380,28.179701)..(1.777340,28.179701)
	..controls (1.402340,28.179701) and (1.375000,28.742201)..(1.777340,28.742201)
	--cycle;
fill (2.023440,5.636720)--(110.648003,5.636720)--(110.648003,4.613280)--(2.023440,4.613280)
	--cycle;
fill (2.023440,2.347660)--(110.648003,2.347660)--(110.648003,0.000000)--(2.023440,0.000000)
	--cycle;

% letter "O"
fill (26.855499,11.539100)--(26.855499,12.324200)..controls (23.375000,12.324200) and (21.109400,15.668000)..(21.109400,20.359400)
	..controls (21.109400,24.726601) and (23.132799,28.097700)..(26.855499,28.097700)
	..controls (30.171900,28.097700) and (32.675800,24.886700)..(32.675800,20.359400)
	..controls (32.675800,14.777300) and (30.414101,12.324200)..(26.855499,12.324200)--(26.855499,11.539100)
	..controls (31.843800,11.539100) and (35.429699,15.019500)..(35.429699,20.359400)
	..controls (35.429699,25.050800) and (31.949200,28.851601)..(26.855499,28.851601)
	..controls (21.894501,28.851601) and (18.335899,24.968800)..(18.335899,20.359400)
	..controls (18.335899,15.343800) and (21.707001,11.539100)..(26.855499,11.539100)
	--cycle;

% letter "N"
fill (36.640598,28.769501)..controls (36.316399,28.769501) and (36.238300,28.203100)..(36.667999,28.203100)
	..controls (37.152302,28.203100) and (38.179699,28.070299)..(38.179699,26.585899)--(38.097698,14.617200)
	..controls (38.097698,13.320300) and (37.636700,12.242200)..(36.425800,12.242200)
	..controls (36.023399,12.242200) and (36.023399,11.703100)..(36.343800,11.703100)--(41.332001,11.703100)
	..controls (41.656200,11.703100) and (41.656200,12.242200)..(41.277302,12.242200)
	..controls (40.550800,12.242200) and (39.285198,12.566400)..(39.257801,14.617200)--(39.148399,26.800800)
	..controls (39.148399,26.800800) and (51.929699,11.785200)..(52.007801,11.703100)--(52.875000,11.703100)--(52.953098,26.101601)
	..controls (52.953098,27.531200) and (53.574200,28.285200)..(55.109402,28.285200)
	..controls (55.433601,28.285200) and (55.433601,28.769501)..(55.109402,28.769501)--(49.527302,28.769501)
	..controls (49.207001,28.769501) and (49.207001,28.285200)..(49.527302,28.285200)
	..controls (50.093800,28.285200) and (51.820301,28.179701)..(51.847698,26.316401)--(51.984402,15.828100)--(41.007801,28.769501)
	--cycle;
fill (36.640598,28.769501)--cycle;

% letter "D"
fill (56.726601,28.851601)..controls (56.164101,28.851601) and (56.269501,28.203100)..(56.593800,28.203100)
	..controls (57.242199,28.203100) and (58.320301,27.882799)..(58.320301,26.585899)--(60.933601,26.476601)
	..controls (60.933601,28.015600) and (61.820301,28.097700)..(63.921902,28.097700)
	..controls (67.562500,28.097700) and (71.230499,26.289101)..(71.230499,20.519501)
	..controls (71.230499,14.910200) and (68.156197,12.511700)..(64.085899,12.511700)--(63.222698,12.511700)
	..controls (62.148399,12.511700) and (60.933601,12.726600)..(60.933601,14.859400)--(60.933601,26.476601)--(58.320301,26.585899)--(58.320301,14.425800)
	..controls (58.320301,13.132800) and (58.023399,12.324200)..(56.484402,12.324200)
	..controls (56.109402,12.324200) and (56.109402,11.703100)..(56.460899,11.703100)--(64.570297,11.703100)
	..controls (68.128899,11.703100) and (74.031197,13.402300)..(74.031197,20.437500)
	..controls (74.031197,27.554701) and (69.179703,28.851601)..(64.488297,28.851601)
	--cycle;
fill (56.726601,28.851601)--cycle;
fill (60.933601,26.476601)--cycle;

% letter "O"
fill (84.843803,11.539100)--(84.843803,12.324200)..controls (81.367203,12.324200) and (79.105499,15.668000)..(79.105499,20.359400)
	..controls (79.105499,24.726601) and (81.125000,28.097700)..(84.843803,28.097700)
	..controls (88.160202,28.097700) and (90.667999,24.886700)..(90.667999,20.359400)
	..controls (90.667999,14.777300) and (88.402298,12.324200)..(84.843803,12.324200)--(84.843803,11.539100)
	..controls (89.835899,11.539100) and (93.417999,15.019500)..(93.417999,20.359400)
	..controls (93.417999,25.050800) and (89.941399,28.851601)..(84.843803,28.851601)
	..controls (79.882797,28.851601) and (76.324203,24.968800)..(76.324203,20.359400)
	..controls (76.324203,15.343800) and (79.695297,11.539100)..(84.843803,11.539100)
	--cycle;

% letter "N"
fill (94.523399,28.769501)..controls (94.203102,28.769501) and (94.121101,28.203100)..(94.550797,28.203100)
	..controls (95.035202,28.203100) and (96.062500,28.070299)..(96.062500,26.585899)--(95.980499,14.617200)
	..controls (95.980499,13.320300) and (95.523399,12.242200)..(94.308601,12.242200)
	..controls (93.902298,12.242200) and (93.902298,11.703100)..(94.230499,11.703100)--(99.214798,11.703100)
	..controls (99.539101,11.703100) and (99.539101,12.242200)..(99.164101,12.242200)
	..controls (98.433601,12.242200) and (97.167999,12.566400)..(97.140602,14.617200)--(97.031197,26.800800)
	..controls (97.031197,26.800800) and (109.811996,11.785200)..(109.894997,11.703100)--(110.758003,11.703100)--(110.835999,26.101601)
	..controls (110.835999,27.531200) and (111.457001,28.285200)..(112.996002,28.285200)
	..controls (113.316002,28.285200) and (113.316002,28.769501)..(112.996002,28.769501)--(107.414001,28.769501)
	..controls (107.089996,28.769501) and (107.089996,28.285200)..(107.414001,28.285200)
	..controls (107.980003,28.285200) and (109.707001,28.179701)..(109.730003,26.316401)--(109.866997,15.828100)--(98.894501,28.769501)
	--cycle;
fill (94.523399,28.769501)--cycle;

% endfig;
% end
