% beginfig(1);

linecap := butt;
linejoin := mitered;

% circle
fill (25.281200,51.105499)--(25.351601,46.523399)..controls (31.046900,46.523399) and (36.117199,44.367199)..(40.074200,40.410198)
	..controls (43.964802,36.519501) and (46.046902,31.378901)..(46.046902,25.753901)
	..controls (46.046902,20.058599) and (44.035198,15.058600)..(40.144501,11.238300)
	..controls (36.046902,7.210940) and (30.769501,5.054690)..(25.351601,5.054690)
	..controls (19.863300,5.054690) and (14.722700,7.203120)..(10.765600,11.164100)
	..controls (6.804690,15.128900) and (4.582030,20.335899)..(4.582030,25.753901)
	..controls (4.582030,31.242201) and (6.804690,36.449200)..(10.765600,40.480499)
	..controls (14.656200,44.437500) and (19.656200,46.523399)..(25.351601,46.523399)--(25.281200,51.105499)
	..controls (18.335899,51.105499) and (12.222700,48.535198)..(7.500000,43.742199)
	..controls (2.640620,38.812500) and (0.000000,32.421902)..(0.000000,25.753901)
	..controls (0.000000,19.015600) and (2.570310,12.765600)..(7.433590,7.902340)
	..controls (12.293000,3.039060) and (18.613300,0.402344)..(25.281200,0.402344)
	..controls (31.949200,0.402344) and (38.410198,3.039060)..(43.410198,7.972660)
	..controls (48.132801,12.628900) and (50.632801,18.808599)..(50.632801,25.753901)
	..controls (50.632801,32.628899) and (48.132801,38.882801)..(43.339802,43.675800)
	..controls (38.476601,48.535198) and (32.226601,51.105499)..(25.281200,51.105499)
	--cycle;
fill (25.281200,51.105499)--cycle;
fill (25.351601,46.523399)--cycle;

% letter "c"
fill (25.023399,29.968800)..controls (23.593800,32.578098) and (21.148399,33.617199)..(18.312500,33.617199)
	..controls (14.183600,33.617199) and (10.898400,30.699200)..(10.898400,25.753901)
	..controls (10.898400,20.726601) and (13.988300,17.890600)..(18.453100,17.890600)
	..controls (21.320299,17.890600) and (23.761700,19.464800)..(25.109400,21.851601)--(21.964800,23.449200)
	..controls (21.261700,21.765600) and (20.195299,21.261700)..(18.847700,21.261700)
	..controls (16.515600,21.261700) and (15.449200,23.199200)..(15.449200,25.753901)
	..controls (15.449200,28.308599) and (16.347700,30.246099)..(18.847700,30.246099)
	..controls (19.519501,30.246099) and (20.867201,29.882799)..(21.656200,28.199200)
	--cycle;
fill (25.023399,29.968800)--cycle;

% letter "c"
fill (39.648399,29.968800)..controls (38.218800,32.578098) and (35.773399,33.617199)..(32.937500,33.617199)
	..controls (28.808599,33.617199) and (25.523399,30.699200)..(25.523399,25.753901)
	..controls (25.523399,20.726601) and (28.613300,17.890600)..(33.078098,17.890600)
	..controls (35.941399,17.890600) and (38.386700,19.464800)..(39.734402,21.851601)--(36.589802,23.449200)
	..controls (35.886700,21.765600) and (34.820301,21.261700)..(33.472698,21.261700)
	..controls (31.140600,21.261700) and (30.074200,23.199200)..(30.074200,25.753901)
	..controls (30.074200,28.308599) and (30.972700,30.246099)..(33.472698,30.246099)
	..controls (34.144501,30.246099) and (35.492199,29.882799)..(36.281200,28.199200)
	--cycle;
fill (39.648399,29.968800)--cycle;

% letter "c"
fill (75.425797,45.093800)..controls (73.218803,49.117199) and (69.453102,50.718800)..(65.082001,50.718800)
	..controls (58.722698,50.718800) and (53.660198,46.218800)..(53.660198,38.601601)
	..controls (53.660198,30.859400) and (58.417999,26.488300)..(65.300797,26.488300)
	..controls (69.710899,26.488300) and (73.476601,28.910200)..(75.554703,32.589802)--(70.707001,35.054699)
	..controls (69.625000,32.453098) and (67.980499,31.679701)..(65.906197,31.679701)
	..controls (62.312500,31.679701) and (60.667999,34.664101)..(60.667999,38.601601)
	..controls (60.667999,42.539101) and (62.054699,45.527302)..(65.906197,45.527302)
	..controls (66.941399,45.527302) and (69.019501,44.964802)..(70.230499,42.367199)
	--cycle;
fill (75.425797,45.093800)--cycle;

% letter "r"
fill (77.070297,27.093800)--(83.824203,27.093800)--(83.824203,40.421902)
	..controls (83.824203,42.972698) and (85.421898,43.664101)..(89.449203,44.140598)--(90.183601,44.230499)--(90.140602,50.199200)
	..controls (87.761703,50.027302) and (85.292999,49.160198)..(83.824203,47.777302)--(83.824203,50.113300)--(77.070297,50.113300)
	--cycle;
fill (77.070297,27.093800)--cycle;

% letter "e"
fill (113.109001,37.218800)..controls (113.066002,44.316399) and (110.210999,50.718800)..(101.811996,50.718800)
	..controls (94.804703,50.718800) and (90.519501,46.046902)..(90.519501,37.910198)
	..controls (90.519501,31.421900) and (94.675797,26.488300)..(101.811996,26.488300)
	..controls (106.964996,26.488300) and (110.640999,28.519501)..(112.976997,32.847698)--(107.914001,35.488300)
	..controls (105.969002,32.718800) and (104.801003,31.421900)..(102.289001,31.421900)
	..controls (100.125000,31.421900) and (97.312500,32.804699)..(97.269501,37.218800)--(97.183601,41.371101)
	..controls (97.488297,44.402302) and (99.824203,45.785198)..(101.769997,45.785198)
	..controls (103.719002,45.785198) and (106.140999,44.746101)..(106.359001,41.371101)--(97.183601,41.371101)--(97.269501,37.218800)
	--cycle;
fill (113.109001,37.218800)--cycle;
fill (97.183601,41.371101)--cycle;

% letter "a"
fill (135.085999,44.054699)..controls (135.039001,49.246101) and (131.102005,50.718800)..(124.828003,50.718800)
	..controls (121.710999,50.718800) and (115.570000,50.113300)..(115.351997,43.492199)--(121.844002,43.492199)
	..controls (122.191002,45.785198) and (123.226997,46.566399)..(125.390999,46.566399)
	..controls (127.207001,46.566399) and (128.593994,45.828098)..(128.593994,44.097698)--(128.593994,42.195301)--(128.593994,38.300800)--(128.593994,36.699200)
	..controls (128.593994,33.195301) and (126.601997,31.421900)..(123.964996,31.421900)
	..controls (122.320000,31.421900) and (120.805000,32.199200)..(120.805000,34.015598)
	..controls (120.805000,35.871101) and (122.362999,36.527302)..(124.051003,36.996101)--(128.593994,38.300800)--(128.593994,42.195301)--(126.128998,41.847698)
	..controls (118.769997,40.808601) and (114.311996,38.863300)..(114.311996,33.324200)
	..controls (114.311996,28.910200) and (117.601997,26.488300)..(122.015999,26.488300)
	..controls (124.438004,26.488300) and (127.811996,27.656200)..(128.938004,29.472700)--(129.026993,29.472700)
	..controls (129.070007,28.691401) and (129.199005,27.871099)..(129.457001,27.093800)--(135.690994,27.093800)
	..controls (135.128998,28.519501) and (135.085999,30.289101)..(135.085999,31.894501)
	--cycle;
fill (135.085999,44.054699)--cycle;
fill (128.593994,36.699200)--cycle;

% letter "t"
fill (150.960999,49.679699)--(146.934006,49.679699)--(146.934006,56.343800)--(140.184006,56.343800)--(140.184006,49.679699)--(136.895004,49.679699)--(136.895004,45.527302)--(140.184006,45.527302)--(140.184006,33.410198)
	..controls (140.184006,30.078100) and (141.007996,26.488300)..(146.761993,26.488300)
	..controls (148.233994,26.488300) and (150.223007,26.660200)..(151.089996,26.746099)--(151.089996,32.070301)
	..controls (150.742004,32.027302) and (149.792999,31.941401)..(149.054993,31.941401)
	..controls (147.843994,31.941401) and (146.934006,32.414101)..(146.934006,34.234402)--(146.934006,45.527302)--(150.960999,45.527302)
	--cycle;
fill (150.960999,49.679699)--cycle;

% letter "i"
fill (153.500000,50.113300)--(153.500000,27.093800)--(160.250000,27.093800)--(160.250000,50.113300)
	--cycle;
fill (160.253998,52.710899)--(160.253998,57.902302)--(153.500000,57.902302)--(153.500000,52.710899)
	--cycle;
fill (160.253998,52.710899)--cycle;

% letter "v"
fill (169.335999,27.093800)--(176.128998,27.093800)--(184.003998,50.113300)--(176.824005,50.113300)--(172.839996,33.843800)--(172.753998,33.843800)--(168.772995,50.113300)--(161.546997,50.113300)
	--cycle;
fill (169.335999,27.093800)--cycle;

% letter "e"
fill (205.804993,37.218800)..controls (205.761993,44.316399) and (202.906006,50.718800)..(194.511993,50.718800)
	..controls (187.500000,50.718800) and (183.218994,46.046902)..(183.218994,37.910198)
	..controls (183.218994,31.421900) and (187.371002,26.488300)..(194.511993,26.488300)
	..controls (199.660004,26.488300) and (203.339996,28.519501)..(205.675995,32.847698)--(200.613007,35.488300)
	..controls (198.664001,32.718800) and (197.496002,31.421900)..(194.988007,31.421900)
	..controls (192.824005,31.421900) and (190.011993,32.804699)..(189.968994,37.218800)--(189.878998,41.371101)
	..controls (190.184006,44.402302) and (192.520004,45.785198)..(194.468994,45.785198)
	..controls (196.414001,45.785198) and (198.839996,44.746101)..(199.054993,41.371101)--(189.878998,41.371101)--(189.968994,37.218800)
	--cycle;
fill (205.804993,37.218800)--cycle;
fill (189.878998,41.371101)--cycle;

% letter "c"
fill (75.425797,18.609400)..controls (73.218803,22.632799) and (69.453102,24.234400)..(65.082001,24.234400)
	..controls (58.722698,24.234400) and (53.660198,19.734400)..(53.660198,12.117200)
	..controls (53.660198,4.371090) and (58.417999,0.003906)..(65.300797,0.003906)
	..controls (69.710899,0.003906) and (73.476601,2.425780)..(75.554703,6.105470)--(70.707001,8.570310)
	..controls (69.625000,5.972660) and (67.980499,5.195310)..(65.906197,5.195310)
	..controls (62.312500,5.195310) and (60.667999,8.179690)..(60.667999,12.117200)
	..controls (60.667999,16.054701) and (62.054699,19.039101)..(65.906197,19.039101)
	..controls (66.941399,19.039101) and (69.019501,18.480499)..(70.230499,15.882800)
	--cycle;
fill (75.425797,18.609400)--cycle;

% letter "o"
fill (87.796898,19.039101)--(87.796898,24.234400)..controls (80.613297,24.234400) and (75.550797,19.863300)..(75.550797,12.117200)
	..controls (75.550797,4.371090) and (80.613297,0.003906)..(87.796898,0.003906)
	..controls (94.980499,0.003906) and (100.042999,4.371090)..(100.042999,12.117200)
	..controls (100.042999,19.863300) and (94.980499,24.234400)..(87.796898,24.234400)--(87.796898,19.039101)
	..controls (91.648399,19.039101) and (93.292999,16.058599)..(93.292999,12.378900)
	..controls (93.292999,8.179690) and (91.648399,5.195310)..(87.796898,5.195310)
	..controls (83.945297,5.195310) and (82.300797,8.179690)..(82.300797,12.117200)
	..controls (82.300797,16.054701) and (83.945297,19.039101)..(87.796898,19.039101)
	--cycle;
fill (87.796898,19.039101)--cycle;
fill (87.796898,24.234400)--cycle;

% letter "m"
fill (101.426003,0.609375)--(108.176003,0.609375)--(108.176003,14.929700)
	..controls (108.176003,17.007799) and (109.042999,18.781200)..(111.769997,18.781200)
	..controls (114.362999,18.781200) and (115.058998,17.269501)..(115.058998,15.015600)--(115.058998,0.609375)--(121.808998,0.609375)--(121.808998,14.757800)
	..controls (121.808998,17.093800) and (122.976997,18.781200)..(125.226997,18.781200)
	..controls (127.777000,18.781200) and (128.688004,17.312500)..(128.688004,14.066400)--(128.688004,0.609375)--(135.438004,0.609375)--(135.438004,18.175800)
	..controls (135.438004,23.453100) and (130.589996,24.234400)..(128.339996,24.234400)
	..controls (125.655998,24.234400) and (123.148003,23.414101)..(120.941002,21.164101)
	..controls (119.426003,23.195299) and (117.480003,24.234400)..(114.839996,24.234400)
	..controls (112.762001,24.234400) and (109.905998,23.628901)..(108.176003,21.593800)--(108.176003,23.628901)--(101.426003,23.628901)
	--cycle;
fill (101.426003,0.609375)--cycle;

% letter "m"
fill (137.598007,0.609375)--(144.348007,0.609375)--(144.348007,14.929700)
	..controls (144.348007,17.007799) and (145.214996,18.781200)..(147.938004,18.781200)
	..controls (150.535004,18.781200) and (151.227005,17.269501)..(151.227005,15.015600)--(151.227005,0.609375)--(157.977005,0.609375)--(157.977005,14.757800)
	..controls (157.977005,17.093800) and (159.145004,18.781200)..(161.395004,18.781200)
	..controls (163.949005,18.781200) and (164.858994,17.312500)..(164.858994,14.066400)--(164.858994,0.609375)--(171.608994,0.609375)--(171.608994,18.175800)
	..controls (171.608994,23.453100) and (166.761993,24.234400)..(164.511993,24.234400)
	..controls (161.828003,24.234400) and (159.320007,23.414101)..(157.113007,21.164101)
	..controls (155.598007,23.195299) and (153.651993,24.234400)..(151.011993,24.234400)
	..controls (148.934006,24.234400) and (146.078003,23.628901)..(144.348007,21.593800)--(144.348007,23.628901)--(137.598007,23.628901)
	--cycle;
fill (137.598007,0.609375)--cycle;

% letter "o"
fill (185.233994,19.039101)--(185.233994,24.234400)..controls (178.050995,24.234400) and (172.988007,19.863300)..(172.988007,12.117200)
	..controls (172.988007,4.371090) and (178.050995,0.003906)..(185.233994,0.003906)
	..controls (192.417999,0.003906) and (197.479996,4.371090)..(197.479996,12.117200)
	..controls (197.479996,19.863300) and (192.417999,24.234400)..(185.233994,24.234400)--(185.233994,19.039101)
	..controls (189.085999,19.039101) and (190.729996,16.058599)..(190.729996,12.378900)
	..controls (190.729996,8.179690) and (189.085999,5.195310)..(185.233994,5.195310)
	..controls (181.382996,5.195310) and (179.738007,8.179690)..(179.738007,12.117200)
	..controls (179.738007,16.054701) and (181.382996,19.039101)..(185.233994,19.039101)
	--cycle;
fill (185.233994,19.039101)--cycle;
fill (185.233994,24.234400)--cycle;

% letter "n"
fill (199.296997,0.609375)--(206.046997,0.609375)--(206.046997,14.929700)
	..controls (206.046997,17.007799) and (206.914001,18.781200)..(209.641006,18.781200)
	..controls (212.233994,18.781200) and (212.929993,17.269501)..(212.929993,15.015600)--(212.929993,0.609375)--(219.679993,0.609375)--(219.679993,17.613300)
	..controls (219.679993,21.074200) and (218.164001,24.234400)..(212.710999,24.234400)
	..controls (210.632996,24.234400) and (207.776993,23.628901)..(206.046997,21.593800)--(206.046997,23.628901)--(199.296997,23.628901)
	--cycle;
fill (199.296997,0.609375)--cycle;

% letter "s"
fill (242.218994,20.902300)..controls (239.102005,22.980499) and (235.598007,24.234400)..(232.050995,24.234400)
	..controls (227.375000,24.234400) and (222.311996,21.984400)..(222.311996,16.183599)
	..controls (222.311996,8.007810) and (235.945007,10.863300)..(235.945007,7.269530)
	..controls (235.945007,5.195310) and (233.391006,4.933590)..(232.266006,4.933590)
	..controls (229.195007,4.933590) and (227.074005,6.187500)..(224.996002,8.179690)--(220.796997,4.546880)
	..controls (224.175995,1.429690) and (227.031006,-0.003906)..(232.050995,-0.003906)
	..controls (237.065994,-0.003906) and (242.434006,2.164060)..(242.434006,8.222660)
	..controls (242.434006,16.835899) and (228.804993,13.589800)..(228.804993,17.527300)
	..controls (228.804993,18.695299) and (230.016006,19.300800)..(231.703003,19.300800)
	..controls (233.824005,19.300800) and (236.723007,18.433599)..(238.061996,16.828100)
	--cycle;
fill (242.218994,20.902300)--cycle;

% endfig;
% end
